<svg width="521" height="152" viewBox="0 0 521 152" fill="none" xmlns="http://www.w3.org/2000/svg">
<path d="M38.1207 151.453C55.7602 151.453 64.8987 143.437 70.2118 133.523C69.5742 136.687 69.1491 140.273 69.1491 143.437V147.656H94.8645V44.7186H68.9366V105.468C68.9366 120.867 59.5856 130.781 45.7716 130.781C32.5951 130.781 26.2194 120.234 26.2194 105.679V44.7186H0.291504V109.898C0.291504 137.109 16.6558 151.453 38.1207 151.453Z" fill="#112A09"/>
<path d="M144.824 147.656V87.5387C144.824 72.9841 154.175 61.8045 167.352 61.8045C180.103 61.8045 187.329 71.5076 187.329 86.695V147.656H213.469V82.8982C213.469 57.5857 199.655 41.3436 176.278 41.3436C159.488 41.3436 149.712 49.1483 143.974 59.4842C144.612 55.4764 144.824 52.3123 144.824 49.3592V44.7186H118.896V147.656H144.824Z" fill="#112A09"/>
<path d="M265.642 0H220.162V20.4609H239.715V133.389C239.715 141.268 246.102 147.656 253.982 147.656H288.058V127.195H265.642V0Z" fill="#112A09"/>
<path d="M351.571 151.453C382.812 151.453 404.914 130.781 404.914 96.609C404.914 62.8592 382.812 41.3436 351.571 41.3436C320.542 41.3436 298.44 62.8592 298.44 96.609C298.44 130.781 320.33 151.453 351.571 151.453ZM351.571 131.203C335.419 131.203 324.793 118.546 324.793 96.609C324.793 74.2497 335.844 61.8045 351.571 61.8045C367.51 61.8045 378.561 74.2497 378.561 96.609C378.561 118.546 367.723 131.203 351.571 131.203Z" fill="#112A09"/>
<path d="M470.576 151.453C501.392 151.453 517.387 134.578 521 108.421H495.653C494.378 120.656 486.94 131.203 471.213 131.203C455.274 131.203 444.435 116.859 444.435 96.3981C444.435 74.0388 456.762 61.8045 471.851 61.8045C486.515 61.8045 493.741 71.9294 494.591 83.531H519.937C517.387 59.4842 502.029 41.3436 471.851 41.3436C441.672 41.3436 418.082 61.8045 418.082 96.1872C418.082 130.359 437.634 151.453 470.576 151.453Z" fill="#112A09"/>
</svg>
